CS 1675 Spring 2022 Homework: 08
…
X03_test<- model.matrix(y~ (x1 + I(x1^2))*(x2+I(x2^2)), data = viz_grid)

dim(X03_test)

## [1] 909   9

dim(X03)

## [1] 100   9

post_pred_summary_viz_03_weak<- summarize_lm_pred_from_laplace(laplace_03_weak, X03_test, 5000)
post_pred_summary_viz_03_weak

## # A tibble: 909 x 7
##    pred_id mu_avg mu_lwr mu_upr y_avg y_lwr y_upr
##      <int>  <dbl>  <dbl>  <dbl> <dbl> <dbl> <dbl>
##  1       1  -1.08  -9.33   7.33 -1.09 -9.39  7.38
##  2       2  -1.15  -9.05   6.89 -1.15 -9.17  7.00
##  3       3  -1.21  -8.75   6.47 -1.23 -8.81  6.41
##  4       4  -1.28  -8.48   6.06 -1.29 -8.49  6.18
##  5       5  -1.34  -8.19   5.64 -1.35 -8.36  5.74
##  6       6  -1.41  -7.93   5.21 -1.40 -8.05  5.30
##  7       7  -1.47  -7.69   4.80 -1.48 -7.80  4.95
##  8       8  -1.53  -7.45   4.40 -1.54 -7.59  4.47
##  9       9  -1.60  -7.20   4.03 -1.60 -7.27  4.22
## 10      10  -1.66  -6.95   3.65 -1.65 -7.09  3.89
## # ... with 899 more rows
…
