Final_Project - Regression B
…
## Rows: 677 Columns: 38
## -- Column specification --------------------------------------------------------
## Delimiter: ","
## chr  (3): region, customer, outcome
## dbl (35): rowid, xb_01, xb_02, xb_03, xn_01, xn_02, xn_03, xa_01, xa_02, xa_...
## 
## i Use `spec()` to retrieve the full column specification for this data.
## i Specify the column types or set `show_col_types = FALSE` to quiet this message.

df_all <- dummy_cols(df_all, select_columns = 'region')
df_all <- dummy_cols(df_all, select_columns = 'customer')
df_all$log_response <- log(df_all$response)
df_all

## # A tibble: 677 x 51
##    rowid region customer xb_01 xb_02 xb_03 xn_01 xn_02 xn_03 xa_01 xa_02 xa_03
##    <dbl> <chr>  <chr>    <dbl> <dbl> <dbl> <dbl> <dbl> <dbl> <dbl> <dbl> <dbl>
##  1     1 XX     B         4        4     4 3         3     3 12       12    12
##  2     3 XX     B         1        1     1 2         2     2  3        3     3
##  3     4 XX     B         2        2     2 2         4     0  9        9     9
##  4     5 XX     B         2.52    11    -6 1.53      9    -3  7.08    29    -7
##  5     8 XX     B         2.55     6    -1 0.839     3    -4  6.45    17    -2
##  6     9 XX     B         3.07     6     1 1.86      8    -2  6.86    18     2
##  7    11 XX     B         3.09    10    -4 1.51      6    -5  7.66    24    -9
##  8    14 XX     B         3.71    12    -4 1.59     10    -6  8.16    27    -5
##  9    15 XX     B         2.70     9    -2 1.17     10    -3  6.89    20    -3
## 10    16 XX     B         2.82    10    -4 1.02      4    -5  7.14    19    -3
## # ... with 667 more rows, and 39 more variables: xb_04 <dbl>, xb_05 <dbl>,
## #   xb_06 <dbl>, xb_07 <dbl>, xb_08 <dbl>, xn_04 <dbl>, xn_05 <dbl>,
## #   xn_06 <dbl>, xn_07 <dbl>, xn_08 <dbl>, xa_04 <dbl>, xa_05 <dbl>,
## #   xa_06 <dbl>, xa_07 <dbl>, xa_08 <dbl>, xw_01 <dbl>, xw_02 <dbl>,
## #   xw_03 <dbl>, xs_01 <dbl>, xs_02 <dbl>, xs_03 <dbl>, xs_04 <dbl>,
## #   xs_05 <dbl>, xs_06 <dbl>, response <dbl>, outcome <chr>, region_XX <int>,
## #   region_YY <int>, region_ZZ <int>, customer_A <int>, customer_B <int>, ...
…
acc_results <- resamples(list(mod_a = mod_a_acc,
                              mod_b = mod_b_acc))
#dotplot(acc_results, metric="Accuracy")
#dotplot(acc_results)

mod_a_roc$pred %>% tibble::as_tibble()

## # A tibble: 2,031 x 7
##    pred      obs          event non_event rowIndex parameter Resample   
##    <fct>     <fct>        <dbl>     <dbl>    <int> <chr>     <chr>      
##  1 non_event non_event 0.00658     0.993         1 none      Fold01.Rep1
##  2 event     non_event 0.731       0.269         7 none      Fold01.Rep1
##  3 non_event non_event 0.304       0.696        14 none      Fold01.Rep1
##  4 non_event non_event 0.267       0.733        16 none      Fold01.Rep1
##  5 non_event non_event 0.377       0.623        23 none      Fold01.Rep1
##  6 event     non_event 0.968       0.0320       56 none      Fold01.Rep1
##  7 non_event non_event 0.0386      0.961        57 none      Fold01.Rep1
##  8 non_event non_event 0.0586      0.941        69 none      Fold01.Rep1
##  9 non_event non_event 0.00324     0.997        73 none      Fold01.Rep1
## 10 non_event non_event 0.000610    0.999       114 none      Fold01.Rep1
## # ... with 2,021 more rows

mod_a_roc$pred %>% yardstick::roc_curve(obs, event)

## # A tibble: 2,032 x 3
##     .threshold specificity sensitivity
##          <dbl>       <dbl>       <dbl>
##  1 -Inf           0              1    
##  2    3.67e-12    0              1    
##  3    2.40e-10    0.000606       1    
##  4    2.86e-10    0.00121        1    
##  5    3.61e-10    0.00182        1    
##  6    1.54e- 9    0.00242        1    
##  7    1.86e- 9    0.00303        1    
##  8    3.73e- 9    0.00364        1    
##  9    4.13e- 9    0.00364        0.997
## 10    4.19e- 9    0.00424        0.997
## # ... with 2,022 more rows
…
#Visualization: Model B

mod_b_roc$pred %>% tibble::as_tibble()

## # A tibble: 2,031 x 7
##    pred      obs              event non_event rowIndex parameter Resample   
##    <fct>     <fct>            <dbl>     <dbl>    <int> <chr>     <chr>      
##  1 non_event non_event 0.196            0.804        5 none      Fold01.Rep1
##  2 non_event non_event 0.0938           0.906       14 none      Fold01.Rep1
##  3 non_event non_event 0.00000217       1.00        32 none      Fold01.Rep1
##  4 non_event non_event 0.0222           0.978       58 none      Fold01.Rep1
##  5 non_event non_event 0.0243           0.976       68 none      Fold01.Rep1
##  6 non_event non_event 0.00962          0.990       74 none      Fold01.Rep1
##  7 non_event non_event 0.00415          0.996       91 none      Fold01.Rep1
##  8 non_event non_event 0.0264           0.974      100 none      Fold01.Rep1
##  9 non_event non_event 0.0000000635     1.00       119 none      Fold01.Rep1
## 10 event     event     0.596            0.404      120 none      Fold01.Rep1
## # ... with 2,021 more rows

mod_b_roc$pred %>% yardstick::roc_curve(obs, event)

## # A tibble: 2,029 x 3
##     .threshold specificity sensitivity
##          <dbl>       <dbl>       <dbl>
##  1 -Inf            0                 1
##  2    2.22e-16     0                 1
##  3    1.41e-13     0.00303           1
##  4    4.24e-13     0.00364           1
##  5    1.08e-12     0.00424           1
##  6    2.33e-12     0.00485           1
##  7    6.27e-12     0.00545           1
##  8    6.96e-12     0.00606           1
##  9    9.07e-12     0.00667           1
## 10    1.26e-11     0.00727           1
## # ... with 2,019 more rows
…
