CS 1675 Spring 2022 Homework: 03
…
2e)

In order to visualize the ROC curve we need to understand how the resample hold-out test predictions are stored within the caret model objects. By default, hold-out test set predictions are not retained, in order to conserve memory. However, the ctrl_roc object set savePredictions = TRUE which overrides the default behavior and stores each resample test-set predictions.

The predictions are contained with the $pred field of the caret model object. The code chunk below displays the first few rows of the predictions for the mod_1_roc result for you. Note that the code chunk below is not evaluated by default. When you execute the code chunk below, you will see 7 columns. The column obs is the observed outcome and the column event is the predicted probability of the event. The pred column is the model classified outcome based on the default threshold of 50%. The rowIndex is the row from the original data set and serves to identify the row correctly. The Resample column tells us which resample fold the test point was associated with.

mod_1_roc$pred %>% tibble::as_tibble()

## # A tibble: 465 x 7
##    pred      obs        event non_event rowIndex parameter Resample   
##    <fct>     <fct>      <dbl>     <dbl>    <int> <chr>     <chr>      
##  1 non_event non_event 0.352      0.648        6 none      Fold01.Rep1
##  2 event     event     0.540      0.460       16 none      Fold01.Rep1
##  3 non_event non_event 0.286      0.714       34 none      Fold01.Rep1
##  4 event     event     0.756      0.244       37 none      Fold01.Rep1
##  5 non_event non_event 0.411      0.589       45 none      Fold01.Rep1
##  6 event     event     0.735      0.265       53 none      Fold01.Rep1
##  7 non_event event     0.0231     0.977       88 none      Fold01.Rep1
##  8 non_event non_event 0.211      0.789       97 none      Fold01.Rep1
##  9 non_event event     0.0808     0.919      107 none      Fold01.Rep1
## 10 non_event event     0.483      0.517      117 none      Fold01.Rep1
## # ... with 455 more rows

The ROC curve is calculated by comparing the model predicted probability to all possible thresholds to create many different classifications. Those different classifications are used to calculate many different confusion matrices. Thus, the columns of primary interest in the prediction object displayed above are the obs and event columns.

You do not need to create the ROC curve manually in this assignment. Instead you will use the roc_curve() function from the yardstick package. The roc_curve() function has three primary arguments. The first is a data object which contains the predictions in a tidy format. The second is the name of the column that corresponds to the observed outcome (the truth or reference). The third is the name of the column in the data set that corresponds to the model predicted event probability.

Pipe the prediction data object for the mod_1_roc caret object to the roc_curve(). The obs column is the observed outcome and the event column is the model predicted event probability. Display the result to the screen to confirm the roc_curve() function worked. If it did the first few rows should correspond to very low threshold values.

Why does the sensitivity have values at or near 1 when the .threshold is so low?

SOLUTION

mod_1_roc$pred %>% yardstick::roc_curve(obs, event)

## # A tibble: 467 x 3
##    .threshold specificity sensitivity
##         <dbl>       <dbl>       <dbl>
##  1 -Inf           0             1    
##  2    0.00354     0             1    
##  3    0.00524     0             0.996
##  4    0.0142      0             0.991
##  5    0.0199      0             0.987
##  6    0.0221      0             0.982
##  7    0.0231      0             0.978
##  8    0.0234      0             0.973
##  9    0.0255      0             0.969
## 10    0.0280      0.00417       0.969
## # ... with 457 more rows
…
The code chunk below is also completed for you. It passes the caret model objects with the saved predictions to the compile_all_model_preds() function. The result is printed for you below so you can see the column names. Notice there is a new column model_name which stores the name of the model associated with the resample hold-out test set predictions. By default the code chunk below is not executed.

all_model_preds <- compile_all_model_preds(mod_1_roc, mod_2_roc, mod_3_roc, 
                                           mod_4_roc, mod_5_roc,
                                           mod_6_roc, mod_7_roc, mod_8_roc)

all_model_preds

## # A tibble: 3,720 x 4
##    obs        event Resample    model_name
##    <fct>      <dbl> <chr>       <chr>     
##  1 non_event 0.352  Fold01.Rep1 1         
##  2 event     0.540  Fold01.Rep1 1         
##  3 non_event 0.286  Fold01.Rep1 1         
##  4 event     0.756  Fold01.Rep1 1         
##  5 non_event 0.411  Fold01.Rep1 1         
##  6 event     0.735  Fold01.Rep1 1         
##  7 event     0.0231 Fold01.Rep1 1         
##  8 non_event 0.211  Fold01.Rep1 1         
##  9 event     0.0808 Fold01.Rep1 1         
## 10 event     0.483  Fold01.Rep1 1         
## # ... with 3,710 more rows
…
